…
```r
library("dplyr", lib.loc="/Library/Frameworks/R.framework/Versions/3.4/Resources/library")
data$complete <- complete.cases(data)
data1 <- filter(data, complete==TRUE)
by_day <- group_by(data1, day)
totday <- summarise(by_day, sum(steps))
totday
```

```
## # A tibble: 53 x 2
##           day `sum(steps)`
##        <fctr>        <int>
##  1 2012-10-02          126
##  2 2012-10-03        11352
##  3 2012-10-04        12116
##  4 2012-10-05        13294
##  5 2012-10-06        15420
##  6 2012-10-07        11015
##  7 2012-10-09        12811
##  8 2012-10-10         9900
##  9 2012-10-11        10304
## 10 2012-10-12        17382
## # ... with 43 more rows
```
…
<br>  


2. The Mean and the median number of steps taken by day can be calculated from the dataset without mising values with


```r
mmday <- summarise(by_day, mean(steps), median(steps))
mmday
```

```
## # A tibble: 53 x 3
##           day `mean(steps)` `median(steps)`
##        <fctr>         <dbl>           <dbl>
##  1 2012-10-02       0.43750               0
##  2 2012-10-03      39.41667               0
##  3 2012-10-04      42.06944               0
##  4 2012-10-05      46.15972               0
##  5 2012-10-06      53.54167               0
##  6 2012-10-07      38.24653               0
##  7 2012-10-09      44.48264               0
##  8 2012-10-10      34.37500               0
##  9 2012-10-11      35.77778               0
## 10 2012-10-12      60.35417               0
## # ... with 43 more rows
```
…
The **mean** and **median** number of daily steps are calculetd first for the corrected dataset, and, to facilitate comparison, then for the original dataset


```r
by_day1 <- group_by(data2, day)
mmday1 <- summarise(by_day1, mean(steps), median(steps))
mmday1 
```

```
## # A tibble: 61 x 3
##           day `mean(steps)` `median(steps)`
##        <fctr>         <dbl>           <dbl>
##  1 2012-10-01      37.38260        34.11321
##  2 2012-10-02       0.43750         0.00000
##  3 2012-10-03      39.41667         0.00000
##  4 2012-10-04      42.06944         0.00000
##  5 2012-10-05      46.15972         0.00000
##  6 2012-10-06      53.54167         0.00000
##  7 2012-10-07      38.24653         0.00000
##  8 2012-10-08      37.38260        34.11321
##  9 2012-10-09      44.48264         0.00000
## 10 2012-10-10      34.37500         0.00000
## # ... with 51 more rows
```

```r
mmday
```

```
## # A tibble: 53 x 3
##           day `mean(steps)` `median(steps)`
##        <fctr>         <dbl>           <dbl>
##  1 2012-10-02       0.43750               0
##  2 2012-10-03      39.41667               0
##  3 2012-10-04      42.06944               0
##  4 2012-10-05      46.15972               0
##  5 2012-10-06      53.54167               0
##  6 2012-10-07      38.24653               0
##  7 2012-10-09      44.48264               0
##  8 2012-10-10      34.37500               0
##  9 2012-10-11      35.77778               0
## 10 2012-10-12      60.35417               0
## # ... with 43 more rows
```
…
